{
  "database": {
    "rules": "database.rules.json"
  },
  "firestore": {
    "rules": "firestore.rules",
    "indexes": "firestore.indexes.json"
  },
  "hosting": {
    "public": "public",
    "ignore": [
      "firebase.json",
      "**/.*",
      "**/node_modules/**"
    ],
    "rewrites": [{
      "source": "/home",
      "function": "app"
    },{
      "source": "/devices",
      "function": "app"
    },{
      "source": "/addDevice",
      "function": "app"
    }]
  },
  "storage": {
    "rules": "storage.rules"
  }
}
